<svg xmlns="http://www.w3.org/2000/svg" height="18.667" width="26.667" id="svg2">
    <defs id="defs6">
        <clipPath id="clipPath18">
            <path id="path16" d="M0 14h20V0H0z"/>
        </clipPath>
    </defs>
    <g transform="matrix(1.33333 0 0 -1.33333 0 18.667)" id="g10">
        <g id="g12">
            <g clip-path="url(#clipPath18)" id="g14">
                <g transform="translate(16.586 13.414)" id="g20">
                    <path fill="#FFF" id="path22" d="M0 0l-8.586-8.585L-13.172-4A2 2 0 1 1-16-6.828l6-6a1.992 1.992 0 0 1 1.414-.586 1.99 1.99 0 0 1 1.414.586l10 10A2 2 0 1 1 0 0"/>
                </g>
            </g>
        </g>
    </g>
</svg>