<?xml version="1.0" encoding="utf-8"?>
<!-- Generator: Adobe Illustrator 19.0.1, SVG Export Plug-In . SVG Version: 6.00 Build 0)  -->
<svg version="1.1" xmlns="http://www.w3.org/2000/svg" xmlns:xlink="http://www.w3.org/1999/xlink" x="0px" y="0px"
	 viewBox="-408 286.3 24 24" style="enable-background:new -408 286.3 24 24;" xml:space="preserve">
<style type="text/css">
	.st0{fill:none;}
	.st1{fill:#FFFFFF;}
</style>
<g id="Layer_1">
	<rect id="_x3C_Slice_x3E__11_" x="-439.5" y="235.8" class="st0" width="128" height="128"/>
</g>
<g id="Layer_4">
	<g>
		<g>
			<path class="st1" d="M-394.5,309.8C-394.5,309.8-394.6,309.8-394.5,309.8l-13.1-2c-0.2,0-0.4-0.2-0.4-0.5v-17
				c0-0.2,0.2-0.4,0.4-0.5l13-3c0.1,0,0.3,0,0.4,0.1c0.1,0.1,0.2,0.2,0.2,0.4v22c0,0.1-0.1,0.3-0.2,0.4
				C-394.3,309.7-394.4,309.8-394.5,309.8z M-407,306.9l12,1.8v-20.8l-12,2.8V306.9z"/>
		</g>
		<g>
			<path class="st1" d="M-384.5,307.8h-10c-0.3,0-0.5-0.2-0.5-0.5s0.2-0.5,0.5-0.5h9.5v-17h-9.5c-0.3,0-0.5-0.2-0.5-0.5
				s0.2-0.5,0.5-0.5h10c0.3,0,0.5,0.2,0.5,0.5v18C-384,307.6-384.2,307.8-384.5,307.8z"/>
		</g>
		<g>
			<path class="st1" d="M-387.5,304.8h-7c-0.3,0-0.5-0.2-0.5-0.5s0.2-0.5,0.5-0.5h7c0.3,0,0.5,0.2,0.5,0.5S-387.2,304.8-387.5,304.8
				z"/>
		</g>
		<g>
			<path class="st1" d="M-387.5,301.8h-7c-0.3,0-0.5-0.2-0.5-0.5s0.2-0.5,0.5-0.5h7c0.3,0,0.5,0.2,0.5,0.5S-387.2,301.8-387.5,301.8
				z"/>
		</g>
		<g>
			<path class="st1" d="M-403.5,302.8c-0.3,0-0.5-0.2-0.5-0.5v-8c0-0.3,0.2-0.5,0.5-0.5h2c1.4,0,2.5,1.1,2.5,2.5v1
				c0,1.4-1.1,2.5-2.5,2.5h-1.5v2.5C-403,302.6-403.2,302.8-403.5,302.8z M-403,298.8h1.5c0.8,0,1.5-0.7,1.5-1.5v-1
				c0-0.8-0.7-1.5-1.5-1.5h-1.5V298.8z"/>
		</g>
		<g>
			<g>
				<path class="st1" d="M-387.5,295.8h-3c-0.3,0-0.5-0.2-0.5-0.5v-3c0-0.3,0.2-0.5,0.5-0.5c1.9,0,3.5,1.6,3.5,3.5
					C-387,295.6-387.2,295.8-387.5,295.8z M-390,294.8h2c-0.2-1-1-1.8-2-2V294.8z"/>
			</g>
		</g>
		<g>
			<path class="st1" d="M-391.5,299.8c-1.9,0-3.5-1.6-3.5-3.5s1.6-3.5,3.5-3.5c0.3,0,0.5,0.2,0.5,0.5s-0.2,0.5-0.5,0.5
				c-1.4,0-2.5,1.1-2.5,2.5s1.1,2.5,2.5,2.5s2.5-1.1,2.5-2.5c0-0.3,0.2-0.5,0.5-0.5s0.5,0.2,0.5,0.5
				C-388,298.2-389.6,299.8-391.5,299.8z"/>
		</g>
	</g>
</g>
</svg>
